{
  "CDInfos": [
    {
      "Name": "Speak Now",
      "Singer": "Taylor Swift",
      "Description": "Country music",
      "ReleaseTime": "2010-10-25",
      "Company": "Universal Music Group",
      "Singles": [
        {
          "name": "Mine",
          "cd_single_infos": [
            {
              "description": "remember",
              "image_url": "https://s1.ax1x.com/2022/07/18/joaViQ.png",
              "theoretical_value": 2.0
            },
            {
              "description": "couch",
              "image_url": "https://s1.ax1x.com/2022/07/18/joaMLV.png",
              "theoretical_value": 0.0
            },
            {
              "description": "believe",
              "image_url": "https://s1.ax1x.com/2022/07/18/joaMLV.png",
              "theoretical_value": -10.0
            },
            {
              "description": "college",
              "image_url": "https://s1.ax1x.com/2022/07/18/joaMLV.png",
              "theoretical_value": -500.0
            },
            {
              "description": "Braced",
              "image_url": "https://s1.ax1x.com/2022/07/18/joaViQ.png",
              "theoretical_value": 63.0
            },
            {
              "description": "fear",
              "image_url": "https://s1.ax1x.com/2022/07/18/joaMLV.png",
              "theoretical_value": -421.0
            },
            {
              "description": "Wondering",
              "image_url": "https://s1.ax1x.com/2022/07/18/joaMLV.png",
              "theoretical_value": -156.0
            }
          ]
        },
        {
          "name": "Sparks Fly",
          "cd_single_infos": [
            {
              "description": "forgets",
              "image_url": "https://s1.ax1x.com/2022/07/18/joaViQ.png",
              "theoretical_value": 9811.0
            },
            {
              "description": "wish",
              "image_url": "https://s1.ax1x.com/2022/07/18/joaViQ.png",
              "theoretical_value": 12810.0
            },
            {
              "description": "haunt",
              "image_url": "https://s1.ax1x.com/2022/07/18/joaViQ.png",
              "theoretical_value": 72109.0
            },
            {
              "description": "reckless",
              "image_url": "https://s1.ax1x.com/2022/07/18/joaViQ.png",
              "theoretical_value": 135.0
            },
            {
              "description": "Sparks",
              "image_url": "https://s1.ax1x.com/2022/07/18/joaViQ.png",
              "theoretical_value": 551.0
            },
            {
              "description": "rainstorm",
              "image_url": "https://s1.ax1x.com/2022/07/18/joaMLV.png",
              "theoretical_value": -20.0
            },
            {
              "description": "Drop",
              "image_url": "https://s1.ax1x.com/2022/07/18/joaViQ.png",
              "theoretical_value": 328.0
            }
          ]
        },
        {
          "name": "Enchanted",
          "cd_single_infos": [
            {
              "description": "enchanting",
              "image_url": "https://s1.ax1x.com/2022/07/18/joaViQ.png",
              "theoretical_value": -7777.0
            },
            {
              "description": "conversation",
              "image_url": "https://s1.ax1x.com/2022/07/18/joaMLV.png",
              "theoretical_value": -4444.0
            },
            {
              "description": "whispered",
              "image_url": "https://s1.ax1x.com/2022/07/18/joaMLV.png",
              "theoretical_value": -6666.0
            },
            {
              "description": "silhouette",
              "image_url": "https://s1.ax1x.com/2022/07/18/joaMLV.png",
              "theoretical_value": -5555.0
            },
            {
              "description": "wonderstruck",
              "image_url": "https://s1.ax1x.com/2022/07/18/joaViQ.png",
              "theoretical_value": -3333.0
            },
            {
              "description": "insincerity",
              "image_url": "https://s1.ax1x.com/2022/07/18/joaMLV.png",
              "theoretical_value": -9999.0
            },
            {
              "description": "vacancy",
              "image_url": "https://s1.ax1x.com/2022/07/18/joaViQ.png",
              "theoretical_value": -8888.0
            },
            {
              "description": "flawless",
              "image_url": "https://s1.ax1x.com/2022/07/18/joaViQ.png",
              "theoretical_value": 0.0
            },
            {
              "description": "forever",
              "image_url": "https://s1.ax1x.com/2022/07/18/joaViQ.png",
              "theoretical_value": -2222.0
            }
          ]
        }
      ]
    },
    {
      "Name": "Torches",
      "Singer": "Aimer",
      "Description": "pop",
      "ReleaseTime": "2019-08-14",
      "Company": "Sony Music Entertainment",
      "Singles": [
        {
          "name": "Torches",
          "cd_single_infos": [
            {
              "description": "blooming",
              "image_url": "https://s1.ax1x.com/2022/07/18/joaViQ.png",
              "theoretical_value": 4.0
            },
            {
              "description": "misty",
              "image_url": "https://s1.ax1x.com/2022/07/18/joaViQ.png",
              "theoretical_value": 5.0
            },
            {
              "description": "torch",
              "image_url": "https://s1.ax1x.com/2022/07/18/joaViQ.png",
              "theoretical_value": 1.0
            },
            {
              "description": "storm",
              "image_url": "https://s1.ax1x.com/2022/07/18/joaViQ.png",
              "theoretical_value": 2.0
            },
            {
              "description": "burning",
              "image_url": "https://s1.ax1x.com/2022/07/18/joaViQ.png",
              "theoretical_value": 0.0
            },
            {
              "description": "flower",
              "image_url": "https://s1.ax1x.com/2022/07/18/joaViQ.png",
              "theoretical_value": 3.0
            },
            {
              "description": "moon",
              "image_url": "https://s1.ax1x.com/2022/07/18/joaViQ.png",
              "theoretical_value": 6.0
            }
          ]
        }
      ]
    },
    {
      "Name": "eyes",
      "Singer": "milet",
      "Description": "pop",
      "ReleaseTime": "2020-06-03",
      "Company": "Sony Music Entertainment",
      "Singles": [
        {
          "name": "Prover",
          "cd_single_infos": [
            {
              "description": "shadow",
              "image_url": "https://s1.ax1x.com/2022/07/18/joaMLV.png",
              "theoretical_value": 0.0
            },
            {
              "description": "remedies",
              "image_url": "https://s1.ax1x.com/2022/07/18/joaMLV.png",
              "theoretical_value": -1.0
            },
            {
              "description": "ladder",
              "image_url": "https://s1.ax1x.com/2022/07/18/joaMLV.png",
              "theoretical_value": -2.0
            },
            {
              "description": "ladder",
              "image_url": "https://s1.ax1x.com/2022/07/18/joaMLV.png",
              "theoretical_value": -3.0
            },
            {
              "description": "prover",
              "image_url": "https://s1.ax1x.com/2022/07/18/joaMLV.png",
              "theoretical_value": -4.0
            }
          ]
        },
        {
          "name": "Inside You",
          "cd_single_infos": [
            {
              "description": "without",
              "image_url": "https://s1.ax1x.com/2022/07/18/joaMLV.png",
              "theoretical_value": 99999.0
            },
            {
              "description": "flames",
              "image_url": "https://s1.ax1x.com/2022/07/18/joaMLV.png",
              "theoretical_value": 999.0
            },
            {
              "description": "space",
              "image_url": "https://s1.ax1x.com/2022/07/18/joaMLV.png",
              "theoretical_value": 99.0
            },
            {
              "description": "inside",
              "image_url": "https://s1.ax1x.com/2022/07/18/joaMLV.png",
              "theoretical_value": 9999.0
            },
            {
              "description": "Where ",
              "image_url": "https://s1.ax1x.com/2022/07/18/joaMLV.png",
              "theoretical_value": 0.0
            }
          ]
        }
      ]
    },
    {
      "Name": "clear/CoLoR",
      "Singer": "YuNi",
      "Description": "pop",
      "ReleaseTime": "2019-04-17",
      "Company": "Candee",
      "Singles": [
        {
          "name": "flos",
          "cd_single_infos": [
            {
              "description": "Daphne",
              "image_url": "https://s1.ax1x.com/2022/07/18/joaViQ.png",
              "theoretical_value": 0.0
            },
            {
              "description": "Ficus",
              "image_url": "https://s1.ax1x.com/2022/07/18/joaViQ.png",
              "theoretical_value": 0.0
            },
            {
              "description": "Iris",
              "image_url": "https://s1.ax1x.com/2022/07/18/joaViQ.png",
              "theoretical_value": 0.0
            },
            {
              "description": "Maackia",
              "image_url": "https://s1.ax1x.com/2022/07/18/joaViQ.png",
              "theoretical_value": 0.0
            },
            {
              "description": "Lythrum",
              "image_url": "https://s1.ax1x.com/2022/07/18/joaViQ.png",
              "theoretical_value": 0.0
            },
            {
              "description": "Myrica",
              "image_url": "https://s1.ax1x.com/2022/07/18/joaViQ.png",
              "theoretical_value": 0.0
            },
            {
              "description": "Sabia",
              "image_url": "https://s1.ax1x.com/2022/07/18/joaViQ.png",
              "theoretical_value": 0.0
            },
            {
              "description": "Dandelion",
              "image_url": "https://s1.ax1x.com/2022/07/18/joaMLV.png",
              "theoretical_value": 0.0
            },
            {
              "description": "Chrysanthemum",
              "image_url": "https://s1.ax1x.com/2022/07/18/joaMLV.png",
              "theoretical_value": 0.0
            },
            {
              "description": "Licorice",
              "image_url": "https://s1.ax1x.com/2022/07/18/joaMLV.png",
              "theoretical_value": 0.0
            },
            {
              "description": "Ribes",
              "image_url": "https://s1.ax1x.com/2022/07/18/joaViQ.png",
              "theoretical_value": 0.0
            },
            {
              "description": "Abelia",
              "image_url": "https://s1.ax1x.com/2022/07/18/joaViQ.png",
              "theoretical_value": 0.0
            },
            {
              "description": "Sedum",
              "image_url": "https://s1.ax1x.com/2022/07/18/joaViQ.png",
              "theoretical_value": 0.0
            },
            {
              "description": "Felicia",
              "image_url": "https://s1.ax1x.com/2022/07/18/joaViQ.png",
              "theoretical_value": 0.0
            },
            {
              "description": "Ochna",
              "image_url": "https://s1.ax1x.com/2022/07/18/joaViQ.png",
              "theoretical_value": 0.0
            },
            {
              "description": "Lychnis",
              "image_url": "https://s1.ax1x.com/2022/07/18/joaViQ.png",
              "theoretical_value": 0.0
            },
            {
              "description": "Thymus",
              "image_url": "https://s1.ax1x.com/2022/07/18/joaViQ.png",
              "theoretical_value": 0.0
            },
            {
              "description": "Lily",
              "image_url": "https://s1.ax1x.com/2022/07/18/joaMLV.png",
              "theoretical_value": 0.0
            },
            {
              "description": "Vanilla",
              "image_url": "https://s1.ax1x.com/2022/07/18/joaMLV.png",
              "theoretical_value": 0.0
            },
            {
              "description": "Plum",
              "image_url": "https://s1.ax1x.com/2022/07/18/joaMLV.png",
              "theoretical_value": 0.0
            }
          ]
        }
      ]
    }
  ],
  "TapeInfos": [
    {
      "Name": "Guardians of the Galaxy: Awesome Mix Vol. 1",
      "Description": "Heavy Metal",
      "ReleaseTime": "2014",
      "Company": "Marvel Studios & DISNEY",
      "ASide": [
        {
          "side_name": "A Side",
          "side_length": "自己算",
          "tape_single_infos": [
            {
              "name": "Spirit in the Sky (Norman Greenbaum) ",
              "start_time": "06:35",
              "end_time": "10:41"
            },
            {
              "name": "Fooled Around and Fell in Love (Elvin Bishop)",
              "start_time": "14:00",
              "end_time": "17:25"
            },
            {
              "name": "I Want You Back (Jackson 5)",
              "start_time": "17:30",
              "end_time": "19:55"
            },
            {
              "name": "Moonage Daydream (David Bowie)",
              "start_time": "10:50",
              "end_time": "13:55"
            },
            {
              "name": "Go All the Way (Raspberries) ",
              "start_time": "03:12",
              "end_time": "06:27"
            },
            {
              "name": "Hooked on a Feeling (Blue Swede) ",
              "start_time": "00:00",
              "end_time": "03:05"
            }
          ]
        }
      ],
      "BSide": [
        {
          "side_name": "B Side",
          "side_length": "给我算",
          "tape_single_infos": [
            {
              "name": "Come and Get Your Love (Redbone)",
              "start_time": "03:10",
              "end_time": "06:25"
            },
            {
              "name": "O - O 1.12 Ain't No Mountain High Enough (Marvin Gaye and Tammi Terrell)",
              "start_time": "14:05",
              "end_time": "18:22"
            },
            {
              "name": "Escape (The Piña Colada Song) (Rupert Holmes) ",
              "start_time": "10:00",
              "end_time": "14:00"
            },
            {
              "name": "Cherry Bomb (The Runaways)",
              "start_time": "06:30",
              "end_time": "09:55"
            },
            {
              "name": " I'm Not in Love (10CC) ",
              "start_time": "00:00",
              "end_time": "03:06"
            }
          ]
        }
      ]
    }
  ],
  "BDInfos": [
    {
      "Name": "Devil May Cry 5 Special Edition",
      "Description": "Action-adventure",
      "ReleaseTime": "2020-11-12",
      "Company": "Capcom",
      "Platform": "PS5",
      "TrophyInfos": {
        "main_title_name": "Devil May Cry 5 Special Edition Trophies",
        "defined_trophies": {
          "bronze_trophy": 48,
          "sliver_trophy": 4,
          "gold_trophy": 2,
          "platinum_trophy": 1
        },
        "earned_trophies": [
          {
            "id": 2,
            "rare_type": "bronze",
            "earned_time": "2022 06-26 14:22"
          },
          {
            "id": 3,
            "rare_type": "bronze",
            "earned_time": "2022 07-02 21:41"
          },
          {
            "id": 4,
            "rare_type": "bronze",
            "earned_time": "2021 11-07 16:02"
          },
          {
            "id": 8,
            "rare_type": "bronze",
            "earned_time": "2021 11-06 12:19"
          },
          {
            "id": 9,
            "rare_type": "bronze",
            "earned_time": "2022 07-01 20:49"
          },
          {
            "id": 10,
            "rare_type": "bronze",
            "earned_time": "2022 07-01 20:52"
          },
          {
            "id": 11,
            "rare_type": "bronze",
            "earned_time": "2021 11-06 13:31"
          },
          {
            "id": 12,
            "rare_type": "bronze",
            "earned_time": "2021 11-06 17:17"
          },
          {
            "id": 13,
            "rare_type": "bronze",
            "earned_time": "2021 11-08 20:04"
          },
          {
            "id": 14,
            "rare_type": "bronze",
            "earned_time": "2021 11-06 17:57"
          },
          {
            "id": 15,
            "rare_type": "bronze",
            "earned_time": "2021 07-03 16:21"
          },
          {
            "id": 16,
            "rare_type": "bronze",
            "earned_time": "2021 11-06 18:34"
          },
          {
            "id": 17,
            "rare_type": "bronze",
            "earned_time": "2022 07-03 18:38"
          },
          {
            "id": 18,
            "rare_type": "bronze",
            "earned_time": "2021 11-06 19:35"
          },
          {
            "id": 19,
            "rare_type": "bronze",
            "earned_time": "2021 11-06 19:53"
          },
          {
            "id": 20,
            "rare_type": "bronze",
            "earned_time": "2021 11-06 20:38"
          },
          {
            "id": 21,
            "rare_type": "bronze",
            "earned_time": "2022 07-03 16:11"
          },
          {
            "id": 22,
            "rare_type": "bronze",
            "earned_time": "2021 11-06 22:28"
          },
          {
            "id": 23,
            "rare_type": "bronze",
            "earned_time": "2022 07-02 20:52"
          },
          {
            "id": 24,
            "rare_type": "bronze",
            "earned_time": "2022 06-26 13:58"
          },
          {
            "id": 25,
            "rare_type": "bronze",
            "earned_time": "2021 11-07 00:02"
          },
          {
            "id": 26,
            "rare_type": "bronze",
            "earned_time": "2021 11-07 00:25"
          },
          {
            "id": 27,
            "rare_type": "bronze",
            "earned_time": "2022 06-26 14:22"
          },
          {
            "id": 28,
            "rare_type": "bronze",
            "earned_time": "2021 10-29 20:14"
          },
          {
            "id": 29,
            "rare_type": "bronze",
            "earned_time": "2021 10-29 20:16"
          },
          {
            "id": 30,
            "rare_type": "bronze",
            "earned_time": "2021 10-30 23:36"
          },
          {
            "id": 31,
            "rare_type": "bronze",
            "earned_time": "2022 07-03 17:57"
          },
          {
            "id": 32,
            "rare_type": "bronze",
            "earned_time": "2021 10-29 20:14"
          },
          {
            "id": 33,
            "rare_type": "sliver",
            "earned_time": "2021 11-07 20:17"
          },
          {
            "id": 34,
            "rare_type": "sliver",
            "earned_time": "2022 06-26 17:07"
          },
          {
            "id": 36,
            "rare_type": "bronze",
            "earned_time": "2021 11-01 22:30"
          },
          {
            "id": 37,
            "rare_type": "bronze",
            "earned_time": "2021 12-12 10:18"
          },
          {
            "id": 38,
            "rare_type": "bronze",
            "earned_time": "2021 12-12 10:41"
          },
          {
            "id": 38,
            "rare_type": "bronze",
            "earned_time": "2021 12-12 10:41"
          },
          {
            "id": 39,
            "rare_type": "bronze",
            "earned_time": "2021 12-12 10:18"
          },
          {
            "id": 40,
            "rare_type": "bronze",
            "earned_time": "2022 07-03 18:17"
          },
          {
            "id": 41,
            "rare_type": "bronze",
            "earned_time": "2022 07-03 19:03"
          },
          {
            "id": 42,
            "rare_type": "bronze",
            "earned_time": "2022 07-02 21:41"
          },
          {
            "id": 43,
            "rare_type": "bronze",
            "earned_time": "2021 11-02 20:18"
          },
          {
            "id": 44,
            "rare_type": "bronze",
            "earned_time": "2021 11-01 21:46"
          },
          {
            "id": 45,
            "rare_type": "bronze",
            "earned_time": "2022 07-07 21:17"
          },
          {
            "id": 46,
            "rare_type": "bronze",
            "earned_time": "2022 06-27 18:59"
          },
          {
            "id": 47,
            "rare_type": "bronze",
            "earned_time": "2022 07-03 16:48"
          },
          {
            "id": 48,
            "rare_type": "bronze",
            "earned_time": "2022 07-01 22:16"
          },
          {
            "id": 49,
            "rare_type": "bronze",
            "earned_time": "2021 11-08 20:10"
          },
          {
            "id": 50,
            "rare_type": "bronze",
            "earned_time": "2021 11-03 21:43"
          },
          {
            "id": 51,
            "rare_type": "bronze",
            "earned_time": "2021 12-11 23:42"
          },
          {
            "id": 52,
            "rare_type": "bronze",
            "earned_time": "2021 11-03 21:38"
          },
          {
            "id": 53,
            "rare_type": "bronze",
            "earned_time": "2021 11-03 21:43"
          },
          {
            "id": 54,
            "rare_type": "bronze",
            "earned_time": "2021 12-11 23:38"
          }
        ],
        "dlc_infos": []
      }
    },
    {
      "Name": "Genshin Imapct",
      "Description": "ARPG",
      "ReleaseTime": "2020-09-28",
      "Company": "miHoYo",
      "Platform": "PS5",
      "TrophyInfos": {
        "main_title_name": "Genshin Imapct Trophies",
        "defined_trophies": {
          "bronze_trophy": 23,
          "sliver_trophy": 10,
          "gold_trophy": 4,
          "platinum_trophy": 1
        },
        "earned_trophies": [
          {
            "id": 1040,
            "rare_type": "platinum",
            "earned_time": "2022 01-01 11:07"
          },
          {
            "id": 2377,
            "rare_type": "brozen",
            "earned_time": "2021 04-06 14:48"
          },
          {
            "id": 7486,
            "rare_type": "brozen",
            "earned_time": "2021 09-04 14:48"
          },
          {
            "id": 4092,
            "rare_type": "brozen",
            "earned_time": "2021 11-04 14:48"
          },
          {
            "id": 751,
            "rare_type": "brozen",
            "earned_time": "2021 12-31 14:48"
          },
          {
            "id": 2343,
            "rare_type": "brozen",
            "earned_time": "2021 12-27 14:48"
          },
          {
            "id": 639,
            "rare_type": "brozen",
            "earned_time": "2021 04-04 14:48"
          },
          {
            "id": 2329,
            "rare_type": "brozen",
            "earned_time": "2021 04-26 14:48"
          },
          {
            "id": 3885,
            "rare_type": "brozen",
            "earned_time": "2021 08-20 14:48"
          },
          {
            "id": 7656,
            "rare_type": "brozen",
            "earned_time": "2021 11-01 14:48"
          },
          {
            "id": 8200,
            "rare_type": "brozen",
            "earned_time": "2021 06-15 14:48"
          },
          {
            "id": 8817,
            "rare_type": "brozen",
            "earned_time": "2021 08-30 14:48"
          },
          {
            "id": 345,
            "rare_type": "brozen",
            "earned_time": "2021 06-05 14:48"
          },
          {
            "id": 1429,
            "rare_type": "brozen",
            "earned_time": "2021 09-11 14:48"
          },
          {
            "id": 9373,
            "rare_type": "brozen",
            "earned_time": "2021 01-02 14:48"
          },
          {
            "id": 9669,
            "rare_type": "brozen",
            "earned_time": "2021 07-17 14:48"
          },
          {
            "id": 3705,
            "rare_type": "brozen",
            "earned_time": "2021 06-08 14:48"
          },
          {
            "id": 9616,
            "rare_type": "brozen",
            "earned_time": "2021 12-11 14:48"
          },
          {
            "id": 6584,
            "rare_type": "brozen",
            "earned_time": "2021 02-25 14:48"
          },
          {
            "id": 8443,
            "rare_type": "brozen",
            "earned_time": "2021 11-01 14:48"
          },
          {
            "id": 7682,
            "rare_type": "brozen",
            "earned_time": "2021 06-12 14:48"
          },
          {
            "id": 2925,
            "rare_type": "brozen",
            "earned_time": "2021 05-13 14:48"
          },
          {
            "id": 7283,
            "rare_type": "brozen",
            "earned_time": "2021 12-27 14:48"
          },
          {
            "id": 9145,
            "rare_type": "brozen",
            "earned_time": "2021 12-19 14:48"
          },
          {
            "id": 3192,
            "rare_type": "brozen",
            "earned_time": "2021 06-12 14:48"
          },
          {
            "id": 6548,
            "rare_type": "brozen",
            "earned_time": "2021 05-07 14:48"
          },
          {
            "id": 3153,
            "rare_type": "brozen",
            "earned_time": "2021 11-10 14:48"
          },
          {
            "id": 9700,
            "rare_type": "brozen",
            "earned_time": "2021 05-13 14:48"
          },
          {
            "id": 7268,
            "rare_type": "brozen",
            "earned_time": "2021 01-29 14:48"
          },
          {
            "id": 6067,
            "rare_type": "brozen",
            "earned_time": "2021 03-26 14:48"
          },
          {
            "id": 2222,
            "rare_type": "brozen",
            "earned_time": "2021 01-26 14:48"
          },
          {
            "id": 2685,
            "rare_type": "brozen",
            "earned_time": "2021 03-18 14:48"
          },
          {
            "id": 2027,
            "rare_type": "brozen",
            "earned_time": "2021 09-13 14:48"
          },
          {
            "id": 6889,
            "rare_type": "brozen",
            "earned_time": "2021 11-11 14:48"
          },
          {
            "id": 4017,
            "rare_type": "brozen",
            "earned_time": "2021 11-02 14:48"
          },
          {
            "id": 8166,
            "rare_type": "brozen",
            "earned_time": "2021 06-28 14:48"
          },
          {
            "id": 2131,
            "rare_type": "brozen",
            "earned_time": "2021 05-08 14:48"
          },
          {
            "id": 1226,
            "rare_type": "brozen",
            "earned_time": "2021 04-01 14:48"
          }
        ],
        "dlc_infos": [
          {
            "title_name": "Genshin Imapct Trophies #2",
            "description": "/",
            "release_time": "/",
            "defined_trophies": {
              "bronze_trophy": 5,
              "sliver_trophy": 0,
              "gold_trophy": 0,
              "platinum_trophy": 0
            },
            "earned_trophies": [
              {
                "id": 1649,
                "rare_type": "brozen",
                "earned_time": "2021 06-03 14:38"
              },
              {
                "id": 4435,
                "rare_type": "brozen",
                "earned_time": "2021 03-16 12:02"
              },
              {
                "id": 944,
                "rare_type": "brozen",
                "earned_time": "2021 05-19 12:02"
              },
              {
                "id": 1603,
                "rare_type": "brozen",
                "earned_time": "2021 12-08 12:02"
              },
              {
                "id": 2457,
                "rare_type": "brozen",
                "earned_time": "2021 01-09 12:02"
              }
            ]
          },
          {
            "title_name": "Genshin Imapct Trophies #3",
            "description": "/",
            "release_time": "/",
            "defined_trophies": {
              "bronze_trophy": 5,
              "sliver_trophy": 0,
              "gold_trophy": 0,
              "platinum_trophy": 0
            },
            "earned_trophies": [
              {
                "id": 2117,
                "rare_type": "brozen",
                "earned_time": "2021 08-21 13:38"
              },
              {
                "id": 8367,
                "rare_type": "brozen",
                "earned_time": "2021 07-14 13:38"
              },
              {
                "id": 2248,
                "rare_type": "brozen",
                "earned_time": "2021 07-04 13:38"
              },
              {
                "id": 651,
                "rare_type": "brozen",
                "earned_time": "2021 05-01 13:38"
              },
              {
                "id": 254,
                "rare_type": "brozen",
                "earned_time": "2021 05-22 13:38"
              }
            ]
          },
          {
            "title_name": "Genshin Imapct Trophies #4",
            "description": "/",
            "release_time": "/",
            "defined_trophies": {
              "bronze_trophy": 10,
              "sliver_trophy": 0,
              "gold_trophy": 0,
              "platinum_trophy": 0
            },
            "earned_trophies": []
          },
          {
            "title_name": "Genshin Imapct Trophies #5",
            "description": "/",
            "release_time": "/",
            "defined_trophies": {
              "bronze_trophy": 9,
              "sliver_trophy": 0,
              "gold_trophy": 0,
              "platinum_trophy": 0
            },
            "earned_trophies": []
          }
        ]
      }
    },
    {
      "Name": "Persona 4 The GOLDEN Trophies",
      "Description": "JRPG",
      "ReleaseTime": "2012-06-14",
      "Company": "Atlus",
      "Platform": "PSVita",
      "TrophyInfos": {
        "main_title_name": "Persona 4 The GOLDEN ",
        "defined_trophies": {
          "bronze_trophy": 50,
          "sliver_trophy": 0,
          "gold_trophy": 0,
          "platinum_trophy": 0
        },
        "earned_trophies": [
          {
            "id": 8122,
            "rare_type": "brozen",
            "earned_time": "2021 09-02 11:47"
          },
          {
            "id": 4875,
            "rare_type": "brozen",
            "earned_time": "2021 02-05 19:11"
          },
          {
            "id": 9130,
            "rare_type": "brozen",
            "earned_time": "2021 12-30 19:11"
          },
          {
            "id": 838,
            "rare_type": "brozen",
            "earned_time": "2021 03-19 19:11"
          },
          {
            "id": 4888,
            "rare_type": "brozen",
            "earned_time": "2021 11-25 19:11"
          },
          {
            "id": 1670,
            "rare_type": "brozen",
            "earned_time": "2021 01-12 19:11"
          },
          {
            "id": 3201,
            "rare_type": "brozen",
            "earned_time": "2021 07-24 19:11"
          },
          {
            "id": 7551,
            "rare_type": "brozen",
            "earned_time": "2021 07-05 19:11"
          },
          {
            "id": 344,
            "rare_type": "brozen",
            "earned_time": "2021 07-04 19:11"
          },
          {
            "id": 9971,
            "rare_type": "brozen",
            "earned_time": "2021 07-26 19:11"
          },
          {
            "id": 8807,
            "rare_type": "brozen",
            "earned_time": "2021 01-15 19:11"
          },
          {
            "id": 7627,
            "rare_type": "brozen",
            "earned_time": "2021 07-05 19:11"
          },
          {
            "id": 3388,
            "rare_type": "brozen",
            "earned_time": "2021 09-11 19:11"
          },
          {
            "id": 5122,
            "rare_type": "brozen",
            "earned_time": "2021 04-13 19:11"
          },
          {
            "id": 9119,
            "rare_type": "brozen",
            "earned_time": "2021 07-19 19:11"
          },
          {
            "id": 3199,
            "rare_type": "brozen",
            "earned_time": "2021 03-11 19:11"
          },
          {
            "id": 2675,
            "rare_type": "brozen",
            "earned_time": "2021 02-13 19:11"
          },
          {
            "id": 8964,
            "rare_type": "brozen",
            "earned_time": "2021 05-15 19:11"
          },
          {
            "id": 2113,
            "rare_type": "brozen",
            "earned_time": "2021 07-16 19:11"
          },
          {
            "id": 1202,
            "rare_type": "brozen",
            "earned_time": "2021 08-03 19:11"
          },
          {
            "id": 272,
            "rare_type": "brozen",
            "earned_time": "2021 09-15 19:11"
          },
          {
            "id": 6775,
            "rare_type": "brozen",
            "earned_time": "2021 08-23 19:11"
          },
          {
            "id": 7641,
            "rare_type": "brozen",
            "earned_time": "2021 03-08 19:11"
          },
          {
            "id": 7060,
            "rare_type": "brozen",
            "earned_time": "2021 03-04 19:11"
          },
          {
            "id": 8499,
            "rare_type": "brozen",
            "earned_time": "2021 12-24 19:11"
          },
          {
            "id": 7553,
            "rare_type": "brozen",
            "earned_time": "2021 04-16 19:11"
          },
          {
            "id": 5733,
            "rare_type": "brozen",
            "earned_time": "2021 12-27 19:11"
          },
          {
            "id": 7359,
            "rare_type": "brozen",
            "earned_time": "2021 04-06 19:11"
          },
          {
            "id": 964,
            "rare_type": "brozen",
            "earned_time": "2021 02-13 19:11"
          },
          {
            "id": 3353,
            "rare_type": "brozen",
            "earned_time": "2021 04-28 19:11"
          },
          {
            "id": 7525,
            "rare_type": "brozen",
            "earned_time": "2021 03-24 19:11"
          },
          {
            "id": 2326,
            "rare_type": "brozen",
            "earned_time": "2021 08-14 19:11"
          },
          {
            "id": 3908,
            "rare_type": "brozen",
            "earned_time": "2021 01-05 19:11"
          },
          {
            "id": 8353,
            "rare_type": "brozen",
            "earned_time": "2021 12-03 19:11"
          },
          {
            "id": 121,
            "rare_type": "brozen",
            "earned_time": "2021 06-15 19:11"
          },
          {
            "id": 2583,
            "rare_type": "brozen",
            "earned_time": "2021 07-27 19:11"
          },
          {
            "id": 8966,
            "rare_type": "brozen",
            "earned_time": "2021 07-19 19:11"
          },
          {
            "id": 2861,
            "rare_type": "brozen",
            "earned_time": "2021 12-07 19:11"
          },
          {
            "id": 193,
            "rare_type": "brozen",
            "earned_time": "2021 02-12 19:11"
          },
          {
            "id": 7080,
            "rare_type": "brozen",
            "earned_time": "2021 01-25 19:11"
          },
          {
            "id": 8466,
            "rare_type": "brozen",
            "earned_time": "2021 10-13 19:11"
          },
          {
            "id": 3055,
            "rare_type": "brozen",
            "earned_time": "2021 08-13 19:11"
          },
          {
            "id": 6484,
            "rare_type": "brozen",
            "earned_time": "2021 02-14 19:11"
          },
          {
            "id": 1585,
            "rare_type": "brozen",
            "earned_time": "2021 01-06 19:11"
          },
          {
            "id": 6574,
            "rare_type": "brozen",
            "earned_time": "2021 06-09 19:11"
          },
          {
            "id": 3558,
            "rare_type": "brozen",
            "earned_time": "2021 05-31 19:11"
          },
          {
            "id": 3898,
            "rare_type": "brozen",
            "earned_time": "2021 12-23 19:11"
          },
          {
            "id": 141,
            "rare_type": "brozen",
            "earned_time": "2021 08-15 19:11"
          },
          {
            "id": 2233,
            "rare_type": "brozen",
            "earned_time": "2021 04-23 19:11"
          },
          {
            "id": 754,
            "rare_type": "brozen",
            "earned_time": "2021 11-14 19:11"
          }
        ],
        "dlc_infos": []
      }
    },
    {
      "Name": "METAL GEAR SOLID V: THE PHANTOM PAIN",
      "Description": "Third-person action",
      "ReleaseTime": "2015-09-01",
      "Company": "KONAMI",
      "Platform": "PS3",
      "TrophyInfos": {
        "main_title_name": "METAL GEAR SOLID V: THE PHANTOM PAIN Trophies",
        "defined_trophies": {
          "bronze_trophy": 43,
          "sliver_trophy": 0,
          "gold_trophy": 0,
          "platinum_trophy": 0
        },
        "earned_trophies": [
          {
            "id": 4905,
            "rare_type": "platinum",
            "earned_time": "2021 04-14 10:03"
          },
          {
            "id": 4269,
            "rare_type": "brozen",
            "earned_time": "2021 09-02 14:45"
          },
          {
            "id": 6631,
            "rare_type": "brozen",
            "earned_time": "2021 12-01 14:45"
          },
          {
            "id": 6170,
            "rare_type": "brozen",
            "earned_time": "2021 03-13 14:45"
          },
          {
            "id": 5236,
            "rare_type": "brozen",
            "earned_time": "2021 04-23 14:45"
          },
          {
            "id": 7288,
            "rare_type": "brozen",
            "earned_time": "2021 07-09 14:45"
          },
          {
            "id": 8,
            "rare_type": "brozen",
            "earned_time": "2021 12-26 14:45"
          },
          {
            "id": 6826,
            "rare_type": "brozen",
            "earned_time": "2021 08-11 14:45"
          },
          {
            "id": 236,
            "rare_type": "brozen",
            "earned_time": "2021 07-05 14:45"
          },
          {
            "id": 7325,
            "rare_type": "brozen",
            "earned_time": "2021 03-14 14:45"
          },
          {
            "id": 338,
            "rare_type": "brozen",
            "earned_time": "2021 01-16 14:45"
          },
          {
            "id": 6287,
            "rare_type": "brozen",
            "earned_time": "2021 06-14 14:45"
          },
          {
            "id": 1721,
            "rare_type": "brozen",
            "earned_time": "2021 02-13 14:45"
          },
          {
            "id": 3593,
            "rare_type": "brozen",
            "earned_time": "2021 09-03 14:45"
          },
          {
            "id": 6437,
            "rare_type": "brozen",
            "earned_time": "2022 01-01 14:45"
          },
          {
            "id": 7491,
            "rare_type": "brozen",
            "earned_time": "2021 04-25 14:45"
          },
          {
            "id": 4620,
            "rare_type": "brozen",
            "earned_time": "2021 05-19 14:45"
          },
          {
            "id": 8109,
            "rare_type": "brozen",
            "earned_time": "2021 12-19 14:45"
          },
          {
            "id": 5470,
            "rare_type": "brozen",
            "earned_time": "2021 07-07 14:45"
          },
          {
            "id": 7601,
            "rare_type": "brozen",
            "earned_time": "2021 05-17 14:45"
          },
          {
            "id": 4773,
            "rare_type": "brozen",
            "earned_time": "2021 06-28 14:45"
          },
          {
            "id": 44,
            "rare_type": "brozen",
            "earned_time": "2021 06-10 14:45"
          },
          {
            "id": 3703,
            "rare_type": "brozen",
            "earned_time": "2021 04-23 14:45"
          },
          {
            "id": 3481,
            "rare_type": "brozen",
            "earned_time": "2021 09-27 14:45"
          },
          {
            "id": 3362,
            "rare_type": "brozen",
            "earned_time": "2021 07-06 14:45"
          },
          {
            "id": 1096,
            "rare_type": "brozen",
            "earned_time": "2021 07-24 14:45"
          },
          {
            "id": 8177,
            "rare_type": "brozen",
            "earned_time": "2021 01-18 14:45"
          },
          {
            "id": 9202,
            "rare_type": "brozen",
            "earned_time": "2021 07-22 14:45"
          },
          {
            "id": 6902,
            "rare_type": "brozen",
            "earned_time": "2021 05-18 14:45"
          },
          {
            "id": 3353,
            "rare_type": "brozen",
            "earned_time": "2021 04-23 14:45"
          },
          {
            "id": 1990,
            "rare_type": "brozen",
            "earned_time": "2021 01-03 14:45"
          },
          {
            "id": 3541,
            "rare_type": "brozen",
            "earned_time": "2021 12-15 14:45"
          },
          {
            "id": 67,
            "rare_type": "brozen",
            "earned_time": "2021 08-22 14:45"
          },
          {
            "id": 5214,
            "rare_type": "brozen",
            "earned_time": "2021 07-09 14:45"
          },
          {
            "id": 7122,
            "rare_type": "brozen",
            "earned_time": "2021 02-15 14:45"
          },
          {
            "id": 3077,
            "rare_type": "brozen",
            "earned_time": "2021 11-24 14:45"
          },
          {
            "id": 4295,
            "rare_type": "brozen",
            "earned_time": "2021 10-22 14:45"
          },
          {
            "id": 216,
            "rare_type": "brozen",
            "earned_time": "2021 05-30 14:45"
          },
          {
            "id": 6598,
            "rare_type": "brozen",
            "earned_time": "2021 01-18 14:45"
          },
          {
            "id": 6646,
            "rare_type": "brozen",
            "earned_time": "2021 01-19 14:45"
          },
          {
            "id": 3584,
            "rare_type": "brozen",
            "earned_time": "2021 04-17 14:45"
          },
          {
            "id": 5030,
            "rare_type": "brozen",
            "earned_time": "2021 03-18 14:45"
          },
          {
            "id": 6788,
            "rare_type": "brozen",
            "earned_time": "2021 07-19 14:45"
          }
        ],
        "dlc_infos": []
      }
    }
  ]
}