%YAML 1.1
%TAG !u! tag:unity3d.com,2011:
--- !u!1001 &7165307892271096545
PrefabInstance:
  m_ObjectHideFlags: 0
  serializedVersion: 2
  m_Modification:
    m_TransformParent: {fileID: 0}
    m_Modifications:
    - target: {fileID: 2539548963737944744, guid: 2eecf77035cb5ee419b58590f5d34548,
        type: 3}
      propertyPath: m_Materials.Array.data[0]
      value: 
      objectReference: {fileID: 2100000, guid: a1a432782f26dec40b19fbb3c59de2c1, type: 2}
    - target: {fileID: 3557428357274699947, guid: 2eecf77035cb5ee419b58590f5d34548,
        type: 3}
      propertyPath: m_Color.b
      value: 0
      objectReference: {fileID: 0}
    - target: {fileID: 3557428357274699947, guid: 2eecf77035cb5ee419b58590f5d34548,
        type: 3}
      propertyPath: m_Color.r
      value: 0.9490196
      objectReference: {fileID: 0}
    - target: {fileID: 3557428357542150814, guid: 2eecf77035cb5ee419b58590f5d34548,
        type: 3}
      propertyPath: m_Size.x
      value: 0.2421875
      objectReference: {fileID: 0}
    - target: {fileID: 3557428357542150814, guid: 2eecf77035cb5ee419b58590f5d34548,
        type: 3}
      propertyPath: m_Size.y
      value: 0.234375
      objectReference: {fileID: 0}
    - target: {fileID: 3557428357542150814, guid: 2eecf77035cb5ee419b58590f5d34548,
        type: 3}
      propertyPath: m_Sprite
      value: 
      objectReference: {fileID: 21300000, guid: 2477ca89dc6e5174dbaf33a6e146780f,
        type: 3}
    - target: {fileID: 3557428357542150814, guid: 2eecf77035cb5ee419b58590f5d34548,
        type: 3}
      propertyPath: m_WasSpriteAssigned
      value: 1
      objectReference: {fileID: 0}
    - target: {fileID: 3557428357913326413, guid: 2eecf77035cb5ee419b58590f5d34548,
        type: 3}
      propertyPath: m_Name
      value: Golden Star
      objectReference: {fileID: 0}
    - target: {fileID: 3557428357913326418, guid: 2eecf77035cb5ee419b58590f5d34548,
        type: 3}
      propertyPath: m_RootOrder
      value: 0
      objectReference: {fileID: 0}
    - target: {fileID: 3557428357913326418, guid: 2eecf77035cb5ee419b58590f5d34548,
        type: 3}
      propertyPath: m_LocalPosition.x
      value: 0
      objectReference: {fileID: 0}
    - target: {fileID: 3557428357913326418, guid: 2eecf77035cb5ee419b58590f5d34548,
        type: 3}
      propertyPath: m_LocalPosition.y
      value: 1.6
      objectReference: {fileID: 0}
    - target: {fileID: 3557428357913326418, guid: 2eecf77035cb5ee419b58590f5d34548,
        type: 3}
      propertyPath: m_LocalPosition.z
      value: 0
      objectReference: {fileID: 0}
    - target: {fileID: 3557428357913326418, guid: 2eecf77035cb5ee419b58590f5d34548,
        type: 3}
      propertyPath: m_LocalRotation.w
      value: 1
      objectReference: {fileID: 0}
    - target: {fileID: 3557428357913326418, guid: 2eecf77035cb5ee419b58590f5d34548,
        type: 3}
      propertyPath: m_LocalRotation.x
      value: 0
      objectReference: {fileID: 0}
    - target: {fileID: 3557428357913326418, guid: 2eecf77035cb5ee419b58590f5d34548,
        type: 3}
      propertyPath: m_LocalRotation.y
      value: 0
      objectReference: {fileID: 0}
    - target: {fileID: 3557428357913326418, guid: 2eecf77035cb5ee419b58590f5d34548,
        type: 3}
      propertyPath: m_LocalRotation.z
      value: 0
      objectReference: {fileID: 0}
    - target: {fileID: 3557428357913326418, guid: 2eecf77035cb5ee419b58590f5d34548,
        type: 3}
      propertyPath: m_LocalEulerAnglesHint.x
      value: 0
      objectReference: {fileID: 0}
    - target: {fileID: 3557428357913326418, guid: 2eecf77035cb5ee419b58590f5d34548,
        type: 3}
      propertyPath: m_LocalEulerAnglesHint.y
      value: 0
      objectReference: {fileID: 0}
    - target: {fileID: 3557428357913326418, guid: 2eecf77035cb5ee419b58590f5d34548,
        type: 3}
      propertyPath: m_LocalEulerAnglesHint.z
      value: 0
      objectReference: {fileID: 0}
    - target: {fileID: 5691329384192411233, guid: 2eecf77035cb5ee419b58590f5d34548,
        type: 3}
      propertyPath: m_Text
      value: SCORE + 200
      objectReference: {fileID: 0}
    - target: {fileID: 5691329384192411233, guid: 2eecf77035cb5ee419b58590f5d34548,
        type: 3}
      propertyPath: m_Color.b
      value: 0
      objectReference: {fileID: 0}
    - target: {fileID: 5691329384192411233, guid: 2eecf77035cb5ee419b58590f5d34548,
        type: 3}
      propertyPath: m_Color.g
      value: 1
      objectReference: {fileID: 0}
    - target: {fileID: 5691329384192411233, guid: 2eecf77035cb5ee419b58590f5d34548,
        type: 3}
      propertyPath: m_Color.r
      value: 0.9490196
      objectReference: {fileID: 0}
    - target: {fileID: 8666044298087305615, guid: 2eecf77035cb5ee419b58590f5d34548,
        type: 3}
      propertyPath: InitialModule.startSize.scalar
      value: 0.1
      objectReference: {fileID: 0}
    - target: {fileID: 8666044298087305615, guid: 2eecf77035cb5ee419b58590f5d34548,
        type: 3}
      propertyPath: InitialModule.startLifetime.scalar
      value: 1
      objectReference: {fileID: 0}
    - target: {fileID: 8666044298087305615, guid: 2eecf77035cb5ee419b58590f5d34548,
        type: 3}
      propertyPath: InitialModule.startColor.maxColor.b
      value: 0
      objectReference: {fileID: 0}
    - target: {fileID: 8666044298087305615, guid: 2eecf77035cb5ee419b58590f5d34548,
        type: 3}
      propertyPath: InitialModule.startColor.maxColor.r
      value: 0.9490196
      objectReference: {fileID: 0}
    - target: {fileID: 8666044298087305615, guid: 2eecf77035cb5ee419b58590f5d34548,
        type: 3}
      propertyPath: InitialModule.startLifetime.minScalar
      value: 0.3
      objectReference: {fileID: 0}
    m_RemovedComponents: []
  m_SourcePrefab: {fileID: 100100000, guid: 2eecf77035cb5ee419b58590f5d34548, type: 3}
--- !u!1 &5921898909932458412 stripped
GameObject:
  m_CorrespondingSourceObject: {fileID: 3557428357913326413, guid: 2eecf77035cb5ee419b58590f5d34548,
    type: 3}
  m_PrefabInstance: {fileID: 7165307892271096545}
  m_PrefabAsset: {fileID: 0}
--- !u!114 &234496118
MonoBehaviour:
  m_ObjectHideFlags: 0
  m_CorrespondingSourceObject: {fileID: 0}
  m_PrefabInstance: {fileID: 0}
  m_PrefabAsset: {fileID: 0}
  m_GameObject: {fileID: 5921898909932458412}
  m_Enabled: 1
  m_EditorHideFlags: 0
  m_Script: {fileID: 11500000, guid: 64a15ca88b610304a87df49a81bd79fb, type: 3}
  m_Name: 
  m_EditorClassIdentifier: 
  minSpeed: 5
  maxSoeed: 15
  defaultPickUpSFX:
    audioClip: {fileID: 8300000, guid: f1f64d3627ad7e94dbeac15c040899b0, type: 3}
    volume: 1
  scoreBonus: 200
