%YAML 1.1
%TAG !u! tag:unity3d.com,2011:
--- !u!1001 &5777096804057671846
PrefabInstance:
  m_ObjectHideFlags: 0
  serializedVersion: 2
  m_Modification:
    m_TransformParent: {fileID: 0}
    m_Modifications:
    - target: {fileID: 2539548963737944744, guid: 2eecf77035cb5ee419b58590f5d34548,
        type: 3}
      propertyPath: m_Materials.Array.data[0]
      value: 
      objectReference: {fileID: 2100000, guid: bc91222717b138546b3556e0369053b5, type: 2}
    - target: {fileID: 3557428357274699947, guid: 2eecf77035cb5ee419b58590f5d34548,
        type: 3}
      propertyPath: m_Color.g
      value: 0.8862745
      objectReference: {fileID: 0}
    - target: {fileID: 3557428357274699947, guid: 2eecf77035cb5ee419b58590f5d34548,
        type: 3}
      propertyPath: m_Color.r
      value: 0.34509805
      objectReference: {fileID: 0}
    - target: {fileID: 3557428357542150814, guid: 2eecf77035cb5ee419b58590f5d34548,
        type: 3}
      propertyPath: m_Size.x
      value: 0.5
      objectReference: {fileID: 0}
    - target: {fileID: 3557428357542150814, guid: 2eecf77035cb5ee419b58590f5d34548,
        type: 3}
      propertyPath: m_Size.y
      value: 0.5
      objectReference: {fileID: 0}
    - target: {fileID: 3557428357542150814, guid: 2eecf77035cb5ee419b58590f5d34548,
        type: 3}
      propertyPath: m_Sprite
      value: 
      objectReference: {fileID: 21300000, guid: fde575ea5128bc747b1fb00e6f385559,
        type: 3}
    - target: {fileID: 3557428357542150814, guid: 2eecf77035cb5ee419b58590f5d34548,
        type: 3}
      propertyPath: m_Color.g
      value: 0.8862745
      objectReference: {fileID: 0}
    - target: {fileID: 3557428357542150814, guid: 2eecf77035cb5ee419b58590f5d34548,
        type: 3}
      propertyPath: m_Color.r
      value: 0.34509805
      objectReference: {fileID: 0}
    - target: {fileID: 3557428357542150814, guid: 2eecf77035cb5ee419b58590f5d34548,
        type: 3}
      propertyPath: m_WasSpriteAssigned
      value: 1
      objectReference: {fileID: 0}
    - target: {fileID: 3557428357913326413, guid: 2eecf77035cb5ee419b58590f5d34548,
        type: 3}
      propertyPath: m_Name
      value: Weapon Power Up
      objectReference: {fileID: 0}
    - target: {fileID: 3557428357913326418, guid: 2eecf77035cb5ee419b58590f5d34548,
        type: 3}
      propertyPath: m_RootOrder
      value: 0
      objectReference: {fileID: 0}
    - target: {fileID: 3557428357913326418, guid: 2eecf77035cb5ee419b58590f5d34548,
        type: 3}
      propertyPath: m_LocalPosition.x
      value: -0.99
      objectReference: {fileID: 0}
    - target: {fileID: 3557428357913326418, guid: 2eecf77035cb5ee419b58590f5d34548,
        type: 3}
      propertyPath: m_LocalPosition.y
      value: 0.05
      objectReference: {fileID: 0}
    - target: {fileID: 3557428357913326418, guid: 2eecf77035cb5ee419b58590f5d34548,
        type: 3}
      propertyPath: m_LocalPosition.z
      value: 0
      objectReference: {fileID: 0}
    - target: {fileID: 3557428357913326418, guid: 2eecf77035cb5ee419b58590f5d34548,
        type: 3}
      propertyPath: m_LocalRotation.w
      value: 1
      objectReference: {fileID: 0}
    - target: {fileID: 3557428357913326418, guid: 2eecf77035cb5ee419b58590f5d34548,
        type: 3}
      propertyPath: m_LocalRotation.x
      value: 0
      objectReference: {fileID: 0}
    - target: {fileID: 3557428357913326418, guid: 2eecf77035cb5ee419b58590f5d34548,
        type: 3}
      propertyPath: m_LocalRotation.y
      value: 0
      objectReference: {fileID: 0}
    - target: {fileID: 3557428357913326418, guid: 2eecf77035cb5ee419b58590f5d34548,
        type: 3}
      propertyPath: m_LocalRotation.z
      value: 0
      objectReference: {fileID: 0}
    - target: {fileID: 3557428357913326418, guid: 2eecf77035cb5ee419b58590f5d34548,
        type: 3}
      propertyPath: m_LocalEulerAnglesHint.x
      value: 0
      objectReference: {fileID: 0}
    - target: {fileID: 3557428357913326418, guid: 2eecf77035cb5ee419b58590f5d34548,
        type: 3}
      propertyPath: m_LocalEulerAnglesHint.y
      value: 0
      objectReference: {fileID: 0}
    - target: {fileID: 3557428357913326418, guid: 2eecf77035cb5ee419b58590f5d34548,
        type: 3}
      propertyPath: m_LocalEulerAnglesHint.z
      value: 0
      objectReference: {fileID: 0}
    - target: {fileID: 5691329384192411233, guid: 2eecf77035cb5ee419b58590f5d34548,
        type: 3}
      propertyPath: m_Text
      value: POWER UP!
      objectReference: {fileID: 0}
    - target: {fileID: 5691329384192411233, guid: 2eecf77035cb5ee419b58590f5d34548,
        type: 3}
      propertyPath: m_Color.b
      value: 1
      objectReference: {fileID: 0}
    - target: {fileID: 5691329384192411233, guid: 2eecf77035cb5ee419b58590f5d34548,
        type: 3}
      propertyPath: m_Color.g
      value: 0.8862745
      objectReference: {fileID: 0}
    - target: {fileID: 5691329384192411233, guid: 2eecf77035cb5ee419b58590f5d34548,
        type: 3}
      propertyPath: m_Color.r
      value: 0.34509805
      objectReference: {fileID: 0}
    m_RemovedComponents: []
  m_SourcePrefab: {fileID: 100100000, guid: 2eecf77035cb5ee419b58590f5d34548, type: 3}
--- !u!1 &7021913161279593451 stripped
GameObject:
  m_CorrespondingSourceObject: {fileID: 3557428357913326413, guid: 2eecf77035cb5ee419b58590f5d34548,
    type: 3}
  m_PrefabInstance: {fileID: 5777096804057671846}
  m_PrefabAsset: {fileID: 0}
--- !u!114 &1823305734
MonoBehaviour:
  m_ObjectHideFlags: 0
  m_CorrespondingSourceObject: {fileID: 0}
  m_PrefabInstance: {fileID: 0}
  m_PrefabAsset: {fileID: 0}
  m_GameObject: {fileID: 7021913161279593451}
  m_Enabled: 1
  m_EditorHideFlags: 0
  m_Script: {fileID: 11500000, guid: cf6715023dc0bfd4aac486ce216221d1, type: 3}
  m_Name: 
  m_EditorClassIdentifier: 
  minSpeed: 5
  maxSoeed: 15
  defaultPickUpSFX:
    audioClip: {fileID: 8300000, guid: 38d3eae6efaa12e49af0352ec20699b3, type: 3}
    volume: 1
  fullWeaponScoreBonus: 200
  fullWeaponPickUpSFX:
    audioClip: {fileID: 8300000, guid: f1f64d3627ad7e94dbeac15c040899b0, type: 3}
    volume: 1
