%YAML 1.1
%TAG !u! tag:unity3d.com,2011:
--- !u!162 &1
EditorUserSettings:
  m_ObjectHideFlags: 0
  serializedVersion: 4
  m_ConfigSettings:
    RecentlyUsedSceneGuid-0:
      value: 5a08575f5207595a0f5d59741173094444164f7d7d2a23317c7a4465bbe1646d
      flags: 0
    RecentlyUsedSceneGuid-1:
      value: 5554570353535c0a5d5a0d21157b0744414e4e78757f746079784f63b4b46c3d
      flags: 0
    RecentlyUsedSceneGuid-2:
      value: 05050700520c5f0308580e7b41760c44144f4c28287c2768747a4537b1b2643b
      flags: 0
    RecentlyUsedSceneGuid-3:
      value: 0700010451535d5d590c5f20457359444f154c732a79713375784531b6e56339
      flags: 0
    RecentlyUsedSceneGuid-4:
      value: 5a06525654570b5f5f0c087749755b4442154c297e792567782d4a31bab8373a
      flags: 0
    RecentlyUsedSceneGuid-5:
      value: 015205575d015a5a5a080a75487b5e444e151929787823622b2b1862b2e4306d
      flags: 0
    RecentlyUsedSceneGuid-6:
      value: 5b520d0503545b0d0c0c0a2715770748154f4d2c7d7d7e627a7d4a35b4e1646a
      flags: 0
    vcSharedLogLevel:
      value: 0d5e400f0650
      flags: 0
  m_VCAutomaticAdd: 1
  m_VCDebugCom: 0
  m_VCDebugCmd: 0
  m_VCDebugOut: 0
  m_SemanticMergeMode: 2
  m_DesiredImportWorkerCount: 1
  m_StandbyImportWorkerCount: 1
  m_IdleImportWorkerShutdownDelay: 60000
  m_VCShowFailedCheckout: 1
  m_VCOverwriteFailedCheckoutAssets: 1
  m_VCProjectOverlayIcons: 1
  m_VCHierarchyOverlayIcons: 1
  m_VCOtherOverlayIcons: 1
  m_VCAllowAsyncUpdate: 1
  m_ArtifactGarbageCollection: 1
